…
## 3. Create a new dataset that is equal to the original dataset but with the missing data filled in.
### The data set will be filled with the missing data needed from the data set done a while ago

```r
stepsfull <- datafull %>%
  filter(!is.na(steps)) %>%
  group_by(date) %>%
  summarize(steps = sum(steps)) %>%
  print
```

```
## # A tibble: 61 x 2
##    date        steps
##    <date>      <dbl>
##  1 2012-10-01 10766.
##  2 2012-10-02   126 
##  3 2012-10-03 11352 
##  4 2012-10-04 12116 
##  5 2012-10-05 13294 
##  6 2012-10-06 15420 
##  7 2012-10-07 11015 
##  8 2012-10-08 10766.
##  9 2012-10-09 12811 
## 10 2012-10-10  9900 
## # ... with 51 more rows
```
…
